[
{
 "title": " Catalogo Adpan",
 "description": "Catalogo de los productos Adpan. ",
 "link": "https://db.tt/VYgcCqTQ",
 "imagen": "json/images/adpan.jpg"
  },
  
{
    "title": " Catalogo Dimefar ",
    "description": "Catalogo de los productos Dimefar. ",
    "link": "https://db.tt/dpnTrzTr",
    "imagen":"json/images/silicea.jpg"
 },
 
 {
 	"title": " Productos Sanavi ",
    "description": "Catalogo de los productos Sanavi. ",
    "link": "https://db.tt/bITSx4m8",
    "imagen": "json/images/sanavi.jpg"
   },
   
 {
	"title": " Ana Maria Lajusticia ",
    "description": "P&aacute;gina oficial de sus productos ",
    "link": "http://www.anamarialajusticia.es/catalogo-productos/general",
    "imagen": "json/images/AML.jpg"
   },
   
   {
	"title": " Fharmocat ",
    "description": "Cat&aacute;logo de productos Fharmocat",
    "link": "https://db.tt/oy7jPOJd",
    "imagen": "json/images/fharmocat.jpg"
   },
   
   {
	"title": " Sucrafor ",
    "description": "Cat&aacute;logo de productos Sucrafor",
    "link": "https://db.tt/moEE7ZVT",
    "imagen": "json/images/sucrafor.jpg"
   }, 
   
   {
	"title": " Sierra del Sorbe ",
    "description": "Cat&aacute;logo de productos de Sierra del Sorbe",
    "link": "https://db.tt/EhukI40f",
    "imagen": "json/images/guadanatur.jpg"
   }, 
   
   {
	"title": " Energy Fruits ",
    "description": "Cat&aacute;logo de productos de Energy Fruits",
    "link": "https://db.tt/tl49wWsM",
    "imagen": "json/images/energyfruits.jpg"
   }, 
    
   {
	"title": " Catalogo Granovita ",
    "description": "Enlace al Catalogo de productos Granovita ",
    "link": "https://db.tt/dN5irlbY",
    "imagen": "json/images/granovita.jpg"
   }    
 ]

